<svg width="49" height="49" viewBox="0 0 49 49" fill="none" xmlns="http://www.w3.org/2000/svg">
<path d="M21 22.0833V32.9167C21 33.5233 21.44 34 22 34C22.56 34 23 33.5233 23 32.9167V22.0833C23 21.4767 22.56 21 22 21C21.44 21 21 21.4767 21 22.0833Z" fill="#FC3F37"/>
<path d="M26 22.0833V32.9167C26 33.5233 26.44 34 27 34C27.56 34 28 33.5233 28 32.9167V22.0833C28 21.4767 27.56 21 27 21C26.44 21 26 21.4767 26 22.0833Z" fill="#FC3F37"/>
<path d="M30 34.1429H19V38.4286H30V34.1429ZM30 32V31.6357C30 31.2286 30.242 30.8429 30.638 30.6714C35.588 28.3786 38.8 23.5143 38.8 18.0928C38.8 10.4 32.398 4.16427 24.5 4.16427C16.602 4.16427 10.2 10.4 10.2 18.0928C10.2 23.5357 13.412 28.4 18.362 30.6714C18.736 30.8429 19 31.2286 19 31.6357V32H30ZM30 40.5714H19V41.6429C19 43.4214 20.474 44.8571 22.3 44.8571H26.7C28.526 44.8571 30 43.4214 30 41.6429V40.5714ZM8 18.0714C8 9.2 15.392 2 24.5 2C33.608 2 41 9.2 41 18.0714C41 24.1143 37.546 29.5357 32.2 32.2786V41.6429C32.2 44.6 29.736 47 26.7 47H22.3C19.264 47 16.8 44.6 16.8 41.6429V32.2786C11.454 29.5357 8 24.1143 8 18.0714Z" fill="#18313A"/>
</svg>
